<?xml version="1.0" encoding="iso-8859-1"?>
<!-- Generator: Adobe Illustrator 19.0.0, SVG Export Plug-In . SVG Version: 6.00 Build 0)  -->
<svg version="1.1" id="Capa_1" xmlns="http://www.w3.org/2000/svg" xmlns:xlink="http://www.w3.org/1999/xlink" x="0px" y="0px"
	 viewBox="0 0 496 496" style="enable-background:new 0 0 496 496;" xml:space="preserve">
<path style="fill:#ECECEC;" d="M440,8H200c-17.672,0-32,14.328-32,32v96v288v32h304V40C472,22.328,457.672,8,440,8z"/>
<g>
	<rect x="176" y="272" style="fill:#B6C1CE;" width="296" height="24"/>
	<rect x="168" y="432" style="fill:#B6C1CE;" width="304" height="24"/>
</g>
<path style="fill:#92E0C0;" d="M184,136H24c-8.84,0-16,7.16-16,16v256c0,8.84,7.16,16,16,16h160c8.84,0,16-7.16,16-16V152
	C200,143.16,192.84,136,184,136z"/>
<g>
	<path style="fill:#0FA196;" d="M168,192c0-13.256-10.744-24-24-24s-24,10.744-24,24c0,6.176,2.4,11.744,6.232,16
		c-3.832,4.256-6.232,9.824-6.232,16c0,13.256,10.744,24,24,24s24-10.744,24-24c0-6.176-2.4-11.744-6.232-16
		C165.6,203.744,168,198.176,168,192z"/>
	<path style="fill:#0FA196;" d="M184,400H24c-8.84,0-16-7.16-16-16v24c0,8.84,7.16,16,16,16h160c8.84,0,16-7.16,16-16v-24
		C200,392.84,192.84,400,184,400z"/>
</g>
<rect x="40" y="328" style="fill:#FEA82F;" width="64" height="64"/>
<path style="fill:#798699;" d="M472,72H168V40c0-17.672,14.328-32,32-32h240c17.672,0,32,14.328,32,32V72z"/>
<rect x="200" y="104" style="fill:#AFB8C9;" width="240" height="128"/>
<polygon style="fill:#798699;" points="392,296 384,328 256,328 248,296 "/>
<rect x="232" y="136" style="fill:#39C3FC;" width="128" height="64"/>
<rect x="232" y="176" style="fill:#148CE0;" width="128" height="24"/>
<path style="fill:#798699;" d="M168,456h304c8.84,0,16,7.16,16,16v16H152v-16C152,463.16,159.16,456,168,456z"/>
<path d="M144,160c-17.648,0-32,14.352-32,32c0,5.648,1.576,11.136,4.432,16c-2.856,4.864-4.432,10.352-4.432,16
	c0,17.648,14.352,32,32,32s32-14.352,32-32c0-5.648-1.576-11.136-4.432-16c2.856-4.864,4.432-10.352,4.432-16
	C176,174.352,161.648,160,144,160z M144,176c8.824,0,16,7.176,16,16c0,1.48-0.2,2.832-0.528,4.056
	C154.76,193.424,149.44,192,144,192s-10.76,1.424-15.472,4.056C128.2,194.832,128,193.48,128,192C128,183.176,135.176,176,144,176z
	 M144,240c-8.824,0-16-7.176-16-16c0-4.968,2.272-8.528,4.168-10.648c6.224-6.904,17.432-6.904,23.656,0
	c1.904,2.12,4.176,5.68,4.176,10.648C160,232.824,152.824,240,144,240z"/>
<rect x="160" y="296" width="16" height="104"/>
<rect x="128" y="344" width="16" height="56"/>
<path d="M32,400h80v-80H32V400z M96,336v16H80v16h16v16H48v-16h16v-16H48v-16H96z"/>
<rect x="288" y="32" width="64" height="16"/>
<path d="M224,208h144v-80H224V208z M240,144h112v48H240V144z"/>
<rect x="392" y="128" width="16" height="16"/>
<rect x="392" y="160" width="16" height="16"/>
<rect x="392" y="192" width="16" height="16"/>
<path d="M480,449.472V40c0-22.056-17.944-40-40-40H200c-22.056,0-40,17.944-40,40v88H24c-13.232,0-24,10.768-24,24v256
	c0,13.232,10.768,24,24,24h136v17.472c-9.288,3.312-16,12.112-16,22.528v24h352v-24C496,461.584,489.288,452.784,480,449.472z
	 M200,16h240c13.232,0,24,10.768,24,24v24H176V40C176,26.768,186.768,16,200,16z M176,80h288v208h-61.752H237.752H208v-48h240V96
	H192v33.472c-2.512-0.896-5.184-1.472-8-1.472h-8V80z M381.752,304l-4,16H262.248l-4-16H381.752z M208,152v-40h224v112H208V152z
	 M16,408V152c0-4.408,3.592-8,8-8h160c4.408,0,8,3.592,8,8v88v168c0,4.408-3.592,8-8,8H24C19.592,416,16,412.408,16,408z M480,480
	H160v-8c0-4.408,3.592-8,8-8h248v-16H176v-16h8c13.232,0,24-10.768,24-24V304h33.752l8,32h140.496l8-32H464v144h-32v16h40
	c4.408,0,8,3.592,8,8V480z"/>
<g>
</g>
<g>
</g>
<g>
</g>
<g>
</g>
<g>
</g>
<g>
</g>
<g>
</g>
<g>
</g>
<g>
</g>
<g>
</g>
<g>
</g>
<g>
</g>
<g>
</g>
<g>
</g>
<g>
</g>
</svg>
